%YAML 1.1
%TAG !u! tag:unity3d.com,2011:
--- !u!74 &7400000
AnimationClip:
  m_ObjectHideFlags: 0
  m_CorrespondingSourceObject: {fileID: 0}
  m_PrefabInstance: {fileID: 0}
  m_PrefabAsset: {fileID: 0}
  m_Name: WalkUp
  serializedVersion: 6
  m_Legacy: 0
  m_Compressed: 0
  m_UseHighQualityCurve: 1
  m_RotationCurves: []
  m_CompressedRotationCurves: []
  m_EulerCurves: []
  m_PositionCurves: []
  m_ScaleCurves: []
  m_FloatCurves: []
  m_PPtrCurves:
  - curve:
    - time: 0
      value: {fileID: 8467585055280049486, guid: c68bf20d76660a542827118ef3497afe,
        type: 3}
    - time: 0.016666668
      value: {fileID: -3292789909348069547, guid: c68bf20d76660a542827118ef3497afe,
        type: 3}
    - time: 0.033333335
      value: {fileID: -9190305061599250533, guid: c68bf20d76660a542827118ef3497afe,
        type: 3}
    - time: 0.05
      value: {fileID: -3867899182942996373, guid: c68bf20d76660a542827118ef3497afe,
        type: 3}
    - time: 0.06666667
      value: {fileID: 2171936083815177369, guid: c68bf20d76660a542827118ef3497afe,
        type: 3}
    - time: 0.083333336
      value: {fileID: -260831254331597122, guid: c68bf20d76660a542827118ef3497afe,
        type: 3}
    - time: 0.1
      value: {fileID: -4450179367553619933, guid: c68bf20d76660a542827118ef3497afe,
        type: 3}
    - time: 0.11666667
      value: {fileID: 2597307301778124102, guid: c68bf20d76660a542827118ef3497afe,
        type: 3}
    - time: 0.13333334
      value: {fileID: 5410891104438142183, guid: c68bf20d76660a542827118ef3497afe,
        type: 3}
    - time: 0.15
      value: {fileID: 3916942034159492464, guid: c68bf20d76660a542827118ef3497afe,
        type: 3}
    - time: 0.16666667
      value: {fileID: 6546656867001545362, guid: c68bf20d76660a542827118ef3497afe,
        type: 3}
    - time: 0.18333334
      value: {fileID: -1488763722505906621, guid: c68bf20d76660a542827118ef3497afe,
        type: 3}
    - time: 0.2
      value: {fileID: -4148050484966060444, guid: c68bf20d76660a542827118ef3497afe,
        type: 3}
    - time: 0.21666667
      value: {fileID: -882404598142255567, guid: c68bf20d76660a542827118ef3497afe,
        type: 3}
    - time: 0.23333333
      value: {fileID: 4714070247311828496, guid: c68bf20d76660a542827118ef3497afe,
        type: 3}
    - time: 0.25
      value: {fileID: 2352824910720574592, guid: c68bf20d76660a542827118ef3497afe,
        type: 3}
    - time: 0.26666668
      value: {fileID: -3933991286702876460, guid: c68bf20d76660a542827118ef3497afe,
        type: 3}
    - time: 0.28333333
      value: {fileID: -9121821075204507359, guid: c68bf20d76660a542827118ef3497afe,
        type: 3}
    attribute: m_Sprite
    path: 
    classID: 212
    script: {fileID: 0}
  m_SampleRate: 60
  m_WrapMode: 0
  m_Bounds:
    m_Center: {x: 0, y: 0, z: 0}
    m_Extent: {x: 0, y: 0, z: 0}
  m_ClipBindingConstant:
    genericBindings:
    - serializedVersion: 2
      path: 0
      attribute: 0
      script: {fileID: 0}
      typeID: 212
      customType: 23
      isPPtrCurve: 1
    pptrCurveMapping:
    - {fileID: 8467585055280049486, guid: c68bf20d76660a542827118ef3497afe, type: 3}
    - {fileID: -3292789909348069547, guid: c68bf20d76660a542827118ef3497afe, type: 3}
    - {fileID: -9190305061599250533, guid: c68bf20d76660a542827118ef3497afe, type: 3}
    - {fileID: -3867899182942996373, guid: c68bf20d76660a542827118ef3497afe, type: 3}
    - {fileID: 2171936083815177369, guid: c68bf20d76660a542827118ef3497afe, type: 3}
    - {fileID: -260831254331597122, guid: c68bf20d76660a542827118ef3497afe, type: 3}
    - {fileID: -4450179367553619933, guid: c68bf20d76660a542827118ef3497afe, type: 3}
    - {fileID: 2597307301778124102, guid: c68bf20d76660a542827118ef3497afe, type: 3}
    - {fileID: 5410891104438142183, guid: c68bf20d76660a542827118ef3497afe, type: 3}
    - {fileID: 3916942034159492464, guid: c68bf20d76660a542827118ef3497afe, type: 3}
    - {fileID: 6546656867001545362, guid: c68bf20d76660a542827118ef3497afe, type: 3}
    - {fileID: -1488763722505906621, guid: c68bf20d76660a542827118ef3497afe, type: 3}
    - {fileID: -4148050484966060444, guid: c68bf20d76660a542827118ef3497afe, type: 3}
    - {fileID: -882404598142255567, guid: c68bf20d76660a542827118ef3497afe, type: 3}
    - {fileID: 4714070247311828496, guid: c68bf20d76660a542827118ef3497afe, type: 3}
    - {fileID: 2352824910720574592, guid: c68bf20d76660a542827118ef3497afe, type: 3}
    - {fileID: -3933991286702876460, guid: c68bf20d76660a542827118ef3497afe, type: 3}
    - {fileID: -9121821075204507359, guid: c68bf20d76660a542827118ef3497afe, type: 3}
  m_AnimationClipSettings:
    serializedVersion: 2
    m_AdditiveReferencePoseClip: {fileID: 0}
    m_AdditiveReferencePoseTime: 0
    m_StartTime: 0
    m_StopTime: 0.3
    m_OrientationOffsetY: 0
    m_Level: 0
    m_CycleOffset: 0
    m_HasAdditiveReferencePose: 0
    m_LoopTime: 1
    m_LoopBlend: 0
    m_LoopBlendOrientation: 0
    m_LoopBlendPositionY: 0
    m_LoopBlendPositionXZ: 0
    m_KeepOriginalOrientation: 0
    m_KeepOriginalPositionY: 1
    m_KeepOriginalPositionXZ: 0
    m_HeightFromFeet: 0
    m_Mirror: 0
  m_EditorCurves: []
  m_EulerEditorCurves: []
  m_HasGenericRootTransform: 0
  m_HasMotionFloatCurves: 0
  m_Events: []
