%YAML 1.1
%TAG !u! tag:unity3d.com,2011:
--- !u!74 &7400000
AnimationClip:
  m_ObjectHideFlags: 0
  m_CorrespondingSourceObject: {fileID: 0}
  m_PrefabInstance: {fileID: 0}
  m_PrefabAsset: {fileID: 0}
  m_Name: WalkRight
  serializedVersion: 6
  m_Legacy: 0
  m_Compressed: 0
  m_UseHighQualityCurve: 1
  m_RotationCurves: []
  m_CompressedRotationCurves: []
  m_EulerCurves: []
  m_PositionCurves: []
  m_ScaleCurves: []
  m_FloatCurves: []
  m_PPtrCurves:
  - curve:
    - time: 0
      value: {fileID: 4351727324776361749, guid: c68bf20d76660a542827118ef3497afe,
        type: 3}
    - time: 0.016666668
      value: {fileID: -8001990612997519978, guid: c68bf20d76660a542827118ef3497afe,
        type: 3}
    - time: 0.033333335
      value: {fileID: -90299773180534504, guid: c68bf20d76660a542827118ef3497afe,
        type: 3}
    - time: 0.05
      value: {fileID: -979486311315833088, guid: c68bf20d76660a542827118ef3497afe,
        type: 3}
    - time: 0.06666667
      value: {fileID: 6811144478041584963, guid: c68bf20d76660a542827118ef3497afe,
        type: 3}
    - time: 0.083333336
      value: {fileID: -7500087935404604138, guid: c68bf20d76660a542827118ef3497afe,
        type: 3}
    - time: 0.1
      value: {fileID: 5222574112707853325, guid: c68bf20d76660a542827118ef3497afe,
        type: 3}
    - time: 0.11666667
      value: {fileID: 2850415347353571782, guid: c68bf20d76660a542827118ef3497afe,
        type: 3}
    - time: 0.13333334
      value: {fileID: 4293380217243706472, guid: c68bf20d76660a542827118ef3497afe,
        type: 3}
    - time: 0.15
      value: {fileID: 901567734749914540, guid: c68bf20d76660a542827118ef3497afe,
        type: 3}
    - time: 0.16666667
      value: {fileID: -1092567413880305222, guid: c68bf20d76660a542827118ef3497afe,
        type: 3}
    - time: 0.18333334
      value: {fileID: -1728241952778059501, guid: c68bf20d76660a542827118ef3497afe,
        type: 3}
    - time: 0.2
      value: {fileID: 4983833655249983538, guid: c68bf20d76660a542827118ef3497afe,
        type: 3}
    - time: 0.21666667
      value: {fileID: 2481327730646331044, guid: c68bf20d76660a542827118ef3497afe,
        type: 3}
    - time: 0.23333333
      value: {fileID: 3936862060458311572, guid: c68bf20d76660a542827118ef3497afe,
        type: 3}
    - time: 0.25
      value: {fileID: -8432207568808628323, guid: c68bf20d76660a542827118ef3497afe,
        type: 3}
    - time: 0.26666668
      value: {fileID: -5949686272215444023, guid: c68bf20d76660a542827118ef3497afe,
        type: 3}
    - time: 0.28333333
      value: {fileID: -6770776056305792419, guid: c68bf20d76660a542827118ef3497afe,
        type: 3}
    attribute: m_Sprite
    path: 
    classID: 212
    script: {fileID: 0}
  m_SampleRate: 60
  m_WrapMode: 0
  m_Bounds:
    m_Center: {x: 0, y: 0, z: 0}
    m_Extent: {x: 0, y: 0, z: 0}
  m_ClipBindingConstant:
    genericBindings:
    - serializedVersion: 2
      path: 0
      attribute: 0
      script: {fileID: 0}
      typeID: 212
      customType: 23
      isPPtrCurve: 1
    pptrCurveMapping:
    - {fileID: 4351727324776361749, guid: c68bf20d76660a542827118ef3497afe, type: 3}
    - {fileID: -8001990612997519978, guid: c68bf20d76660a542827118ef3497afe, type: 3}
    - {fileID: -90299773180534504, guid: c68bf20d76660a542827118ef3497afe, type: 3}
    - {fileID: -979486311315833088, guid: c68bf20d76660a542827118ef3497afe, type: 3}
    - {fileID: 6811144478041584963, guid: c68bf20d76660a542827118ef3497afe, type: 3}
    - {fileID: -7500087935404604138, guid: c68bf20d76660a542827118ef3497afe, type: 3}
    - {fileID: 5222574112707853325, guid: c68bf20d76660a542827118ef3497afe, type: 3}
    - {fileID: 2850415347353571782, guid: c68bf20d76660a542827118ef3497afe, type: 3}
    - {fileID: 4293380217243706472, guid: c68bf20d76660a542827118ef3497afe, type: 3}
    - {fileID: 901567734749914540, guid: c68bf20d76660a542827118ef3497afe, type: 3}
    - {fileID: -1092567413880305222, guid: c68bf20d76660a542827118ef3497afe, type: 3}
    - {fileID: -1728241952778059501, guid: c68bf20d76660a542827118ef3497afe, type: 3}
    - {fileID: 4983833655249983538, guid: c68bf20d76660a542827118ef3497afe, type: 3}
    - {fileID: 2481327730646331044, guid: c68bf20d76660a542827118ef3497afe, type: 3}
    - {fileID: 3936862060458311572, guid: c68bf20d76660a542827118ef3497afe, type: 3}
    - {fileID: -8432207568808628323, guid: c68bf20d76660a542827118ef3497afe, type: 3}
    - {fileID: -5949686272215444023, guid: c68bf20d76660a542827118ef3497afe, type: 3}
    - {fileID: -6770776056305792419, guid: c68bf20d76660a542827118ef3497afe, type: 3}
  m_AnimationClipSettings:
    serializedVersion: 2
    m_AdditiveReferencePoseClip: {fileID: 0}
    m_AdditiveReferencePoseTime: 0
    m_StartTime: 0
    m_StopTime: 0.3
    m_OrientationOffsetY: 0
    m_Level: 0
    m_CycleOffset: 0
    m_HasAdditiveReferencePose: 0
    m_LoopTime: 1
    m_LoopBlend: 0
    m_LoopBlendOrientation: 0
    m_LoopBlendPositionY: 0
    m_LoopBlendPositionXZ: 0
    m_KeepOriginalOrientation: 0
    m_KeepOriginalPositionY: 1
    m_KeepOriginalPositionXZ: 0
    m_HeightFromFeet: 0
    m_Mirror: 0
  m_EditorCurves: []
  m_EulerEditorCurves: []
  m_HasGenericRootTransform: 0
  m_HasMotionFloatCurves: 0
  m_Events: []
